{
    "name": "Product Attribute",
    "description": "This is the product attributes component.",
    "group": "more_pd_pdp",
    "attribute_definition_groups": [
        {
            "id": "productAttributeSettings",
            "name": "Product Attribute Settings",
            "description": "Display settings for the product attributes.",
            "attribute_definitions": [
                {
                    "id": "attributeTitle",
                    "name": "Attribute Block Title",
                    "description": "Attribute Block Title",
                    "type": "string",
                    "required": false
                },
                {
                    "id": "attributeID",
                    "name": "Attribute",
                    "description": "Attribute",
                    "type": "string",
                    "required": true
                },
                {
                    "id": "divExpandedOrCompress",
                    "name": "Show or Hide Attribute tab",
                    "description": "Attribute will be Show or Hide by default",
                    "type": "boolean",
                    "required": true
                }
                
            ]
        }
    ],
    "region_definitions": []
}
