{
    "name": "Product Social Icons",
    "description": "This is the product social icons component.",
    "group": "more_pd_pdp",
    "attribute_definition_groups": [
        {
            "id": "productSocialsSettings",
            "name": "Settings",
            "description": "Display settings",
            "attribute_definitions": []
         
        }
    ],
    "region_definitions": []
}
