<?xml version="1.0" encoding="utf-8"?>
<!-- Generator: Adobe Illustrator 25.2.3, SVG Export Plug-In . SVG Version: 6.00 Build 0)  -->
<svg version="1.1" id="Layer_1" xmlns="http://www.w3.org/2000/svg" xmlns:xlink="http://www.w3.org/1999/xlink" x="0px" y="0px"
	 viewBox="0 0 56 56" style="enable-background:new 0 0 56 56;" xml:space="preserve">
<style type="text/css">
	.st0{clip-path:url(#SVGID_2_);}
</style>
<g>
	<defs>
		<rect id="SVGID_1_" width="56" height="56"/>
	</defs>
	<clipPath id="SVGID_2_">
		<use xlink:href="#SVGID_1_"  style="overflow:visible;"/>
	</clipPath>
	<g id="_01_CENTRO_DE_AYUDA_-_BUSCAR_6" class="st0">
		<path id="Path_39" d="M50.6,15.4c0,0,0-0.1,0-0.1c0-0.1-0.1-0.2-0.1-0.3c0,0,0,0,0-0.1s0,0,0,0c-0.1-0.1-0.1-0.2-0.2-0.3
			c0,0-0.1,0-0.1-0.1c0,0-0.1-0.1-0.1-0.1L29.5,4.1c-0.3-0.2-0.7-0.2-1,0L5.6,16.1c-0.1,0-0.1,0.1-0.2,0.1c0,0,0,0-0.1,0.1
			c-0.1,0.1-0.2,0.2-0.2,0.3c0,0,0,0,0,0s0,0,0,0.1c0,0.1-0.1,0.2-0.1,0.3c0,0,0,0.1,0,0.1c0,0,0,0,0,0V39c0,0.4,0.2,0.8,0.6,1
			l21.2,11.9c0,0,0.1,0,0.1,0l0.1,0c0,0,0.1,0,0.1,0c0.2,0,0.3,0.1,0.5,0.1c0.4,0,0.8-0.1,1.1-0.4c0.5-0.4,1.1-0.8,1.7-1.1
			c1.6-0.6,3.3-0.9,5-1c1.8,0.3,3.6,0,5.1-0.9c0,0,0.1,0,0.1,0l0.1,0c1.5-1,2.6-2.4,3.2-4.1c0.4-1.1,1.1-2.2,2-3
			c1-0.6,2.1-1.1,3.3-1.6l0.1,0c0.5-0.2,0.9-0.7,1.1-1.3c0-0.1,0-0.2,0-0.2L50.6,15.4C50.6,15.5,50.6,15.5,50.6,15.4z M29,6.3
			l18.2,9.2l-5.4,3L24,8.9L29,6.3z M41,27.5l-3.3,2L37,23.6l3.5-1.9L41,27.5z M27.3,26.4L8.5,17l7.6-4c0.1,0.2,0.3,0.4,0.5,0.5
			l17.5,9L27.3,26.4z M36.3,21.3L18.2,12l3.5-1.9c0.1,0.1,0.1,0.1,0.2,0.2l17.5,9.4l-3,1.6C36.4,21.4,36.4,21.3,36.3,21.3L36.3,21.3
			z M7.2,18.8l19,9.5V49l-19-10.6V18.8z M44.4,39.8c-1.1,1.1-1.9,2.3-2.5,3.7c-0.5,1.3-1.3,2.4-2.4,3.1l0,0l0,0
			c-1.2,0.6-2.6,0.8-3.9,0.6c-1.8-0.1-5.5,1-5.9,1.2c-0.4,0.2-0.8,0.4-1.2,0.6V28.3l6.5-3.6l0.5,5c0.1,1.2,1.2,2.1,2.4,2
			c0.3,0,0.6-0.1,0.9-0.3l3.3-2c0.7-0.4,1.1-1.2,1.1-2.1l-0.5-6.9l5.7-3.1l-0.2,20.6C46.9,38.4,45.6,39.1,44.4,39.8L44.4,39.8z"/>
	</g>
</g>
</svg>
