<?xml version="1.0" encoding="utf-8"?>
<!-- Generator: Adobe Illustrator 25.2.3, SVG Export Plug-In . SVG Version: 6.00 Build 0)  -->
<svg version="1.1" id="Layer_1" xmlns="http://www.w3.org/2000/svg" xmlns:xlink="http://www.w3.org/1999/xlink" x="0px" y="0px"
	 viewBox="0 0 56 56" style="enable-background:new 0 0 56 56;" xml:space="preserve">
<style type="text/css">
	.st0{clip-path:url(#SVGID_2_);}
	.st1{fill:#040505;}
</style>
<g>
	<defs>
		<rect id="SVGID_1_" width="56" height="56"/>
	</defs>
	<clipPath id="SVGID_2_">
		<use xlink:href="#SVGID_1_"  style="overflow:visible;"/>
	</clipPath>
	<g id="_01_CENTRO_DE_AYUDA_-_BUSCAR_1" class="st0">
		<g id="Group_4750" transform="translate(4)">
			<path id="Path_45" class="st1" d="M42.4,14.7c-0.4-0.5-1.2-0.6-1.7-0.2c0,0,0,0,0,0c-4.3,3.6-7.8,8-10.3,13.1l-1.8-3.4
				c-0.3-0.6-1-0.8-1.6-0.5c-0.6,0.3-0.8,1-0.5,1.6l3,5.6c0.2,0.4,0.6,0.6,1.1,0.6c0,0,0.1,0,0.1,0c0.5,0,0.9-0.3,1-0.8
				c2.3-5.6,5.9-10.5,10.6-14.4C42.7,16,42.8,15.3,42.4,14.7C42.4,14.7,42.4,14.7,42.4,14.7z"/>
			<path id="Path_46" class="st1" d="M35.3,30.1c-0.7,0-1.2,0.5-1.2,1.2l0,0v14.8c0.1,0.8-0.2,1.6-0.7,2.2c-0.3,0.3-0.7,0.5-1.1,0.5
				c-0.4,0-0.8-0.1-1.2-0.2c-0.7-0.2-1.4-0.2-2.1-0.2c-0.6,0.1-1.1,0.3-1.6,0.6c-0.7,0.4-1.5,0.6-2.3,0.5c-0.8,0-1.6-0.2-2.3-0.6
				c-0.7-0.4-1.4-0.6-2.2-0.6c-0.8,0-1.5,0.2-2.2,0.6c-0.6,0.4-1.4,0.6-2.1,0.5c-0.8,0-1.6-0.1-2.3-0.5c-0.5-0.3-1.1-0.5-1.7-0.6
				c-0.7-0.1-1.3,0-1.9,0.2c-0.4,0.1-0.8,0.2-1.2,0.2c-0.4,0-0.8-0.1-1.1-0.4c-0.5-0.7-0.7-1.5-0.7-2.3V12c0-0.8,0.7-1.5,1.5-1.5
				h4.4c0.3,2,2,3.5,4,3.6h6.8c2,0,3.8-1.5,4-3.6h4.4c0.8,0,1.5,0.7,1.5,1.5l0,5.2c0,0.7,0.5,1.2,1.2,1.2h0c0.7,0,1.2-0.5,1.2-1.2
				l0-5.2c0-2.2-1.8-3.9-3.9-3.9h-4.3v0c0-2.2-1.8-4.1-4.1-4.1h-6.8c-2.2,0-4.1,1.8-4.1,4.1v0H8.9C6.8,8.1,5,9.8,5,12v34.1
				c-0.1,1.5,0.4,2.9,1.4,4c0.8,0.7,1.8,1.1,2.9,1.1c0.6,0,1.1-0.1,1.7-0.2c0.3-0.1,0.6-0.1,1-0.2c0.4,0.1,0.7,0.2,1.1,0.4
				c1,0.5,2.2,0.8,3.4,0.8c1.1,0,2.2-0.3,3.2-0.8c0.3-0.2,0.7-0.3,1.1-0.3c0.4,0,0.8,0.1,1.1,0.3c1,0.5,2.2,0.8,3.3,0.8
				c1.2,0,2.3-0.2,3.3-0.8c0.3-0.2,0.6-0.3,1-0.4c0.4,0,0.7,0,1.1,0.1c0.6,0.2,1.2,0.2,1.7,0.2c1,0,2-0.5,2.8-1.2
				c1-1.1,1.5-2.5,1.4-3.9V31.3C36.5,30.6,35.9,30.1,35.3,30.1z M15.7,8.1c0-0.9,0.7-1.6,1.6-1.6h6.8c0.9,0,1.6,0.7,1.6,1.6V10
				c0,0.9-0.7,1.6-1.6,1.6h-6.8c-0.9,0-1.6-0.7-1.6-1.6L15.7,8.1z"/>
			<path id="Path_47" class="st1" d="M11.4,18.4h5.2c0.7,0,1.2-0.5,1.2-1.2c0-0.7-0.5-1.2-1.2-1.2c0,0,0,0,0,0h-5.2
				c-0.7,0-1.2,0.5-1.2,1.2C10.2,17.8,10.8,18.4,11.4,18.4C11.4,18.4,11.4,18.4,11.4,18.4z"/>
			<path id="Path_48" class="st1" d="M29.7,21.9c0-0.7-0.5-1.2-1.2-1.2h0H11.4c-0.7,0-1.2,0.5-1.2,1.2c0,0.7,0.5,1.2,1.2,1.2
				c0,0,0,0,0,0h17.1C29.2,23.1,29.7,22.6,29.7,21.9z"/>
			<path id="Path_49" class="st1" d="M22.6,25.5H11.4c-0.7,0-1.2,0.5-1.2,1.2c0,0.7,0.5,1.2,1.2,1.2h11.1c0.7,0,1.2-0.5,1.2-1.2
				C23.8,26,23.2,25.5,22.6,25.5C22.6,25.5,22.6,25.5,22.6,25.5z"/>
			<path id="Path_50" class="st1" d="M11.4,32.7h7.2c0.7,0,1.2-0.5,1.2-1.2c0-0.7-0.5-1.2-1.2-1.2h-7.2c-0.7,0-1.2,0.5-1.2,1.2
				C10.2,32.1,10.8,32.7,11.4,32.7z"/>
			<path id="Path_51" class="st1" d="M11.4,37.5h11.1c0.7,0,1.2-0.5,1.2-1.2c0-0.7-0.5-1.2-1.2-1.2c0,0,0,0,0,0H11.4
				c-0.7,0-1.2,0.5-1.2,1.2C10.2,36.9,10.8,37.5,11.4,37.5C11.4,37.5,11.4,37.5,11.4,37.5z"/>
			<path id="Path_52" class="st1" d="M11.4,42.2h17.1c0.7,0,1.2-0.5,1.2-1.2c0-0.7-0.5-1.2-1.2-1.2c0,0,0,0,0,0H11.4
				c-0.7,0-1.2,0.5-1.2,1.2C10.2,41.7,10.8,42.2,11.4,42.2C11.4,42.2,11.4,42.2,11.4,42.2z"/>
		</g>
	</g>
</g>
</svg>
