<?xml version="1.0" encoding="utf-8"?>
<!-- Generator: Adobe Illustrator 25.2.3, SVG Export Plug-In . SVG Version: 6.00 Build 0)  -->
<svg version="1.1" id="Layer_1" xmlns="http://www.w3.org/2000/svg" xmlns:xlink="http://www.w3.org/1999/xlink" x="0px" y="0px"
	 viewBox="0 0 56 56" style="enable-background:new 0 0 56 56;" xml:space="preserve">
<style type="text/css">
	.st0{clip-path:url(#SVGID_2_);}
	.st1{fill:none;}
</style>
<g>
	<defs>
		<rect id="SVGID_1_" width="56" height="56"/>
	</defs>
	<clipPath id="SVGID_2_">
		<use xlink:href="#SVGID_1_"  style="overflow:visible;"/>
	</clipPath>
	<g id="_01_CENTRO_DE_AYUDA_-_BUSCAR_11" class="st0">
		<g id="Component_165_1" transform="translate(4 4)">
			<g id="settings_phone-24px" transform="translate(0 0.386)">
				<path id="Path_7890" class="st1" d="M0,0h48v48H0V0z"/>
			</g>
			<path id="Icon_simple-dependabot" d="M23.3,0.6c1.2-0.8,2.8-0.8,4,0l17.6,11.8c1,0.7,1.6,1.9,1.6,3.1v15.3c0,1.2-0.6,2.4-1.6,3.1
				L27.2,45.8c-1.2,0.8-2.8,0.8-4,0L5.6,34c-1-0.7-1.6-1.9-1.6-3.1V15.5c0-1.2,0.6-2.4,1.6-3.1L23.3,0.6z M26.7,14.5V16H15.3
				c-0.8,0-1.4,0.7-1.4,1.5c0,0,0,0,0,0v5.8H13c-0.3,0-0.5,0.2-0.5,0.5c0,0,0,0,0,0v4.8c0,0.3,0.2,0.5,0.5,0.5c0,0,0,0,0,0h0.9v2.9
				c0,0.8,0.6,1.4,1.4,1.5c0,0,0,0,0,0h19.8c0.8,0,1.4-0.7,1.4-1.5c0,0,0,0,0,0V29h0.9c0.3,0,0.5-0.2,0.5-0.5c0,0,0,0,0,0v-4.8
				c0-0.3-0.2-0.5-0.5-0.5c0,0,0,0,0,0h-0.9v-5.8c0-0.8-0.6-1.4-1.4-1.5c0,0,0,0,0,0h-7.1v-5.3c0-0.3-0.2-0.5-0.5-0.5c0,0,0,0,0,0
				h-3.3c-0.3,0-0.5,0.2-0.5,0.5c0,0,0,0,0,0V14c0,0.3,0.2,0.5,0.5,0.5c0,0,0,0,0,0L26.7,14.5z M32.9,24.3l-3,3
				c-0.2,0.2-0.6,0.2-0.8,0c0,0,0,0,0,0l-1.8-1.8c-0.2-0.2-0.2-0.6,0-0.8l0.6-0.6c0.2-0.2,0.6-0.2,0.8,0c0,0,0,0,0,0l0.8,0.8l2-2
				c0.2-0.2,0.6-0.2,0.8,0c0,0,0,0,0,0l0.6,0.6C33.1,23.8,33.1,24.1,32.9,24.3z M20.5,27.4L20.5,27.4c-0.2,0.2-0.6,0.2-0.8,0
				c0,0,0,0,0,0l-1.8-1.8c-0.2-0.2-0.2-0.6,0-0.8l0.6-0.6c0.2-0.2,0.6-0.2,0.8,0c0,0,0,0,0,0l0.8,0.8l2-2c0.2-0.2,0.6-0.2,0.8,0
				c0,0,0,0,0,0l0.6,0.6c0.2,0.2,0.2,0.6,0,0.8L20.5,27.4z"/>
		</g>
	</g>
</g>
</svg>
