<?xml version="1.0" encoding="utf-8"?>
<!-- Generator: Adobe Illustrator 25.2.3, SVG Export Plug-In . SVG Version: 6.00 Build 0)  -->
<svg version="1.1" id="Layer_1" xmlns="http://www.w3.org/2000/svg" xmlns:xlink="http://www.w3.org/1999/xlink" x="0px" y="0px"
	 viewBox="0 0 56 56" style="enable-background:new 0 0 56 56;" xml:space="preserve">
<style type="text/css">
	.st0{clip-path:url(#SVGID_2_);}
</style>
<g>
	<defs>
		<rect id="SVGID_1_" width="56" height="56"/>
	</defs>
	<clipPath id="SVGID_2_">
		<use xlink:href="#SVGID_1_"  style="overflow:visible;"/>
	</clipPath>
	<g id="_01_CENTRO_DE_AYUDA_-_BUSCAR_7" class="st0">
		<g id="Group_28" transform="translate(-251.033 -173.178)">
			<g id="Group_27" transform="translate(255.033 180.178)">
				<g id="Group_14" transform="translate(13.32 17.455)">
					<path id="Path_26" d="M1,2.1h2.1c0.6,0,1-0.5,1-1c0-0.6-0.5-1-1-1l0,0H1C0.5,0,0,0.5,0,1C0,1.6,0.5,2.1,1,2.1z"/>
				</g>
				<g id="Group_15" transform="translate(21.935 17.455)">
					<path id="Path_27" d="M1,2.1h2.1c0.6,0,1-0.5,1-1c0-0.6-0.5-1-1-1H1C0.5,0,0,0.5,0,1C0,1.6,0.5,2.1,1,2.1z"/>
				</g>
				<g id="Group_16" transform="translate(30.549 17.455)">
					<path id="Path_28" d="M1,2.1h2.1c0.6,0,1-0.5,1-1c0-0.6-0.5-1-1-1l0,0H1C0.5,0,0,0.5,0,1C0,1.6,0.5,2.1,1,2.1z"/>
				</g>
				<g id="Group_17" transform="translate(13.32 21.552)">
					<path id="Path_29" d="M1,2.1h2.1c0.6,0,1-0.5,1-1c0-0.6-0.5-1-1-1l0,0H1C0.5,0,0,0.5,0,1C0,1.6,0.5,2.1,1,2.1z"/>
				</g>
				<g id="Group_18" transform="translate(21.935 21.552)">
					<path id="Path_30" d="M1,2.1h2.1c0.6,0,1-0.5,1-1c0-0.6-0.5-1-1-1H1C0.5,0,0,0.5,0,1C0,1.6,0.5,2.1,1,2.1z"/>
				</g>
				<g id="Group_19" transform="translate(30.549 21.552)">
					<path id="Path_31" d="M1,2.1h2.1c0.6,0,1-0.5,1-1c0-0.6-0.5-1-1-1l0,0H1C0.5,0,0,0.5,0,1C0,1.6,0.5,2.1,1,2.1z"/>
				</g>
				<g id="Group_20" transform="translate(13.32 25.649)">
					<path id="Path_32" d="M1,2.1h2.1c0.6,0,1-0.5,1-1c0-0.6-0.5-1-1-1l0,0H1C0.5,0,0,0.5,0,1C0,1.6,0.5,2.1,1,2.1z"/>
				</g>
				<g id="Group_21" transform="translate(11.633 5.016)">
					<path id="Path_33" d="M1,2.1h5.8c0.6,0,1-0.5,1-1c0-0.6-0.5-1-1-1H1C0.5,0,0,0.5,0,1C0,1.6,0.5,2.1,1,2.1z"/>
				</g>
				<g id="Group_22" transform="translate(11.633 9.363)">
					<path id="Path_34" d="M1,2.1h5.8c0.6,0,1-0.5,1-1c0-0.6-0.5-1-1-1H1C0.5,0,0,0.5,0,1C0,1.6,0.5,2.1,1,2.1z"/>
				</g>
				<g id="Group_23" transform="translate(20.072 35.792)">
					<path id="Path_35" d="M6.8,0H1C0.5,0,0,0.5,0,1c0,0.6,0.5,1,1,1h5.8c0.6,0,1-0.5,1-1C7.9,0.5,7.4,0,6.8,0L6.8,0z"/>
				</g>
				<g id="Group_24" transform="translate(21.935 25.649)">
					<path id="Path_36" d="M1,2.1h2.1c0.6,0,1-0.5,1-1c0-0.6-0.5-1-1-1H1C0.5,0,0,0.5,0,1C0,1.6,0.5,2.1,1,2.1z"/>
				</g>
				<g id="Group_25" transform="translate(30.549 25.649)">
					<path id="Path_37" d="M1,2.1h2.1c0.6,0,1-0.5,1-1c0-0.6-0.5-1-1-1l0,0H1C0.5,0,0,0.5,0,1C0,1.6,0.5,2.1,1,2.1z"/>
				</g>
				<g id="Group_26">
					<path id="Path_38" d="M46.1,22.1c-0.4-1.4-0.8-2.9-1.2-4.4c-0.7-2.7-3.3-4.6-6.1-4.4h-4.1V9.7H38c0.6,0,1.1-0.5,1.1-1.1
						c0,0,0,0,0,0V3.4c0-0.6-0.5-1.1-1.1-1.1c0,0,0,0,0,0h-8.8c-0.6,0-1.1,0.5-1.1,1.1c0,0,0,0,0,0v5.2c0,0.6,0.5,1.1,1.1,1.1l0,0
						h3.3v3.5h-8.3V3.7c0-1.8-1.5-3.2-3.3-3.2c-0.5,0-1,0.1-1.5,0.2c-0.2,0.1-0.5,0.1-0.7,0.1c-0.3-0.1-0.5-0.1-0.8-0.3
						c-1.4-0.6-3-0.6-4.4,0c-0.2,0.1-0.5,0.2-0.8,0.3c-0.2,0-0.5,0-0.7-0.1c-0.5-0.1-1-0.2-1.5-0.2c-1.8,0-3.3,1.4-3.3,3.2v9.8
						c-2,0.5-3.6,2.1-4.2,4.1c-0.4,1.5-0.8,3-1.2,4.4c-1,3.5-1.9,6.5-1.9,9.1v11.5h48V31.1C48,28.6,47.1,25.5,46.1,22.1z M30.3,4.5
						h6.6v3h-6.6V4.5z M10.5,2.7c0.4,0,0.7,0.1,1,0.1C12.1,3,12.6,3,13.2,2.9c0.4-0.1,0.8-0.2,1.2-0.4c0.4-0.2,0.9-0.3,1.3-0.3
						c0.4,0,0.9,0.1,1.3,0.3c0.4,0.2,0.8,0.3,1.2,0.4C18.8,3,19.3,3,19.8,2.9c0.3-0.1,0.7-0.1,1-0.1c0,0,1.1,0.1,1.1,1v9.5H9.5V3.7
						C9.5,2.8,10.5,2.7,10.5,2.7z M4,22.7c0.4-1.4,0.8-2.9,1.2-4.5c0.5-1.7,2.1-2.9,3.9-2.7h29.6c1.8-0.2,3.5,1,3.9,2.7
						c0.4,1.6,0.8,3.1,1.2,4.5c0.8,2.4,1.3,4.8,1.7,7.3H2.3C2.7,27.5,3.2,25,4,22.7L4,22.7z M2.2,40.4v-8.2h43.5v8.2L2.2,40.4z"/>
				</g>
			</g>
		</g>
	</g>
</g>
</svg>
