<?xml version="1.0" encoding="utf-8"?>
<!-- Generator: Adobe Illustrator 25.2.3, SVG Export Plug-In . SVG Version: 6.00 Build 0)  -->
<svg version="1.1" id="Layer_1" xmlns="http://www.w3.org/2000/svg" xmlns:xlink="http://www.w3.org/1999/xlink" x="0px" y="0px"
	 viewBox="0 0 56 56" style="enable-background:new 0 0 56 56;" xml:space="preserve">
<style type="text/css">
	.st0{clip-path:url(#SVGID_2_);}
	.st1{fill:#FFFFFF;}
	.st2{fill:#040505;}
</style>
<g>
	<defs>
		<rect id="SVGID_1_" width="56" height="56"/>
	</defs>
	<clipPath id="SVGID_2_">
		<use xlink:href="#SVGID_1_"  style="overflow:visible;"/>
	</clipPath>
	<g id="_01_CENTRO_DE_AYUDA_-_BUSCAR_9" class="st0">
		<rect class="st1" width="56" height="56"/>
		<g id="Component_164_1" transform="translate(4 11)">
			<path id="Path_57" class="st2" d="M48.3,4.4L48.3,4.4c0-0.2-0.1-0.5-0.2-0.7c0,0,0-0.1,0-0.1C47.5,1.5,45.5,0,43.3,0H5.1
				C3.5,0,2,0.8,1,2.1l0,0C0.9,2.2,0.8,2.4,0.7,2.6c0,0.1-0.1,0.1-0.1,0.1C0.5,2.9,0.4,3.1,0.3,3.3c0,0,0,0,0,0.1
				C0.1,3.9,0,4.4,0,4.9l0,0C0,4.9,0,5,0,5.1v24.2c0,1.2,0.4,2.3,1.2,3.2c0,0.1,0.1,0.1,0.1,0.2c0,0,0.1,0.1,0.1,0.1
				c1,1,2.3,1.6,3.7,1.6h38.2c2.8,0,5.1-2.3,5.1-5.1V5.1C48.4,4.8,48.4,4.6,48.3,4.4z M46,29.3c0,0.3,0,0.5-0.1,0.8L33.2,18.9
				c0.7,0,1.4-0.2,2.1-0.4c1.4-0.6,2.5-1.5,3.4-2.6c0.3-0.4,0.6-0.7,0.9-1c0.5-0.2,1-0.4,1.5-0.6c1.5-0.3,2.9-1,4-2.1
				c0.1-0.1,0.2-0.2,0.3-0.3c0.2-0.3,0.4-0.5,0.6-0.8L46,29.3z M5.1,2.4h38.2c1,0,2,0.6,2.4,1.5c-0.2,0.4-0.4,0.7-0.6,1.1
				c-0.2,0.7-0.3,1.3-0.4,2c-0.1,1.2-0.5,2.4-1.2,3.4c0,0,0,0.1-0.1,0.1c-0.8,0.7-1.9,1.2-3,1.5c-1.5,0.2-2.8,1.1-3.6,2.3
				c-0.6,0.8-1.4,1.5-2.3,1.9c-1.1,0.3-2.2,0.3-3.3,0.1c-0.8-0.2-1.6-0.2-2.4-0.1c-0.7,0.2-1.5,0.5-2.1,0.9c-1.7,1.2-3.9,1.2-5.6,0
				c-0.7-0.5-1.5-0.8-2.3-0.9c-0.2,0-0.4,0-0.6,0c-0.6,0-1.1,0.1-1.6,0.2c-1,0.2-2.1,0.2-3.1,0c-1-0.4-1.9-1.1-2.5-2
				c-0.5-0.6-1-1.1-1.6-1.6c0,0-0.1,0-0.1-0.1c-0.6-0.3-1.3-0.6-1.9-0.7c-1.1-0.2-2.1-0.7-3-1.5c0,0,0-0.1-0.1-0.1
				c-0.7-1-1.1-2.2-1.2-3.4C3.2,6.3,3,5.6,2.8,4.9c0,0,0-0.1,0-0.1C2.7,4.7,2.6,4.5,2.5,4.4C2.8,3.2,3.9,2.4,5.1,2.4L5.1,2.4z
				 M2.5,30c-0.1-0.2-0.1-0.5-0.1-0.7V11.7c0.1,0.1,0.1,0.1,0.1,0.2c0.1,0.1,0.2,0.2,0.3,0.3c1.1,1,2.5,1.7,4,2
				c0.5,0.1,0.9,0.3,1.4,0.5c0.4,0.3,0.8,0.7,1.1,1.1c0.9,1.2,2.2,2.2,3.6,2.7c0.9,0.3,1.8,0.4,2.7,0.3L2.5,30z M5.1,32
				c-0.3,0-0.6-0.1-1-0.2l15.2-13l0,0c0.2,0.1,0.4,0.2,0.6,0.3c1.1,0.8,2.5,1.2,3.9,1.3H24h0.1c1.4-0.1,2.7-0.5,3.9-1.3
				c0.4-0.3,0.8-0.4,1.2-0.6l15,13.3c-0.3,0.1-0.6,0.2-0.9,0.2L5.1,32z"/>
		</g>
	</g>
</g>
</svg>
