<svg xmlns="http://www.w3.org/2000/svg" xmlns:xlink="http://www.w3.org/1999/xlink" width="60" height="64" viewBox="0 0 60 64">
  <defs>
    <pattern id="pattern" preserveAspectRatio="none" width="100%" height="100%" viewBox="0 0 38 40">
      <image width="38" height="40" xlink:href="data:image/png;base64,iVBORw0KGgoAAAANSUhEUgAAACYAAAAoCAYAAACSN4jeAAAABHNCSVQICAgIfAhkiAAAAFlJREFUWEft0rENACEQA0HTf9FPDZuh1xBvgOZ8tn178B0fi1chFsFGjFgVqL2NEasCtbcxYlWg9jZGrArU3saIVYHa2xixKlB7GyNWBWpvY8SqQO1t7DdiF6kvKAGAFOboAAAAAElFTkSuQmCC"/>
    </pattern>
  </defs>
  <g id="Group_828" data-name="Group 828" transform="translate(0 -457)">
    <g id="back" transform="translate(-1024.47 -1037.074)">
      <rect id="bg" width="60" height="64" transform="translate(1024.47 1494.074)" opacity="0.2" fill="url(#pattern)"/>
    </g>
    <g id="next" transform="translate(37.866 502.006) rotate(180)">
      <g id="Group_708" data-name="Group 708" transform="translate(0 0)">
        <path id="Path_695" data-name="Path 695" d="M15.435,12.449,3.417.431a1.48,1.48,0,0,0-2.089,0l-.885.885a1.479,1.479,0,0,0,0,2.089L10.534,13.5.431,23.6a1.481,1.481,0,0,0,0,2.09l.885.885a1.48,1.48,0,0,0,2.089,0L15.435,14.546a1.491,1.491,0,0,0,0-2.1Z" transform="translate(0 0)" fill="#fff"/>
      </g>
    </g>
  </g>
</svg>
