<svg xmlns="http://www.w3.org/2000/svg" width="6.298" height="10.72" viewBox="0 0 6.298 10.72">
  <path id="Path_695" data-name="Path 695" d="M6.127,4.942,1.356.171a.588.588,0,0,0-.829,0L.176.522a.587.587,0,0,0,0,.829L4.182,5.358.171,9.368a.588.588,0,0,0,0,.829l.351.351a.588.588,0,0,0,.829,0L6.127,5.774a.592.592,0,0,0,0-.832Z" transform="translate(0 0)" fill="#777"/>
</svg>
