{
    "hooks": [
        {
            "name": "app.hook.services.kb.categories",
            "script": "./cartridge/scripts/hooks/kb/categories"
        },
        {
            "name": "app.hook.services.kb.category.articles",
            "script": "./cartridge/scripts/hooks/kb/articles"
        },
        {
            "name": "app.hook.services.kb.category.article",
            "script": "./cartridge/scripts/hooks/kb/article"
        }
    ]
}
