<svg id="Layer_1" data-name="Layer 1" xmlns="http://www.w3.org/2000/svg" viewBox="0 0 1035.74 251.98">
    <g id="root" stroke="none" stroke-width="1" fill="none" fill-rule="evenodd">
        <rect id="background" fill="#FFF" x="0" y="0" width="500" height="500"></rect>
        <path d="M91.262 190.21c-2.329 0 -4.217 -1.838 -4.217 -4.105c0 -2.267 1.888 -4.105 4.217 -4.105c2.33 0 4.217 1.838 4.217 4.105c0 2.267 -1.888 4.105 -4.217 4.105zm21.691 3.733c-2.056 -1.094 -2.86 -3.603 -1.796 -5.605c1.065 -2.002 3.595 -2.738 5.651 -1.645c2.056 1.094 2.86 3.603 1.796 5.605c-1.064 2.002 -3.594 2.738 -5.65 1.645zm17.467 13.145c-1.336 -1.908 -0.913 -4.508 0.944 -5.809c1.857 -1.3 4.446 -0.808 5.782 1.1c1.335 1.908 0.913 4.508 -0.945 5.809c-1.857 1.3 -4.445 0.808 -5.781 -1.1zm-3.399 59.249c1.73 -1.558 4.364 -1.456 5.88 0.229c1.518 1.685 1.345 4.314 -0.386 5.872c-1.73 1.559 -4.364 1.456 -5.88 -0.229c-1.518 -1.685 -1.345 -4.314 0.386 -5.872zm-18.794 11.161c2.26 -0.563 4.536 0.763 5.084 2.963c0.549 2.2 -0.838 4.44 -3.098 5.004c-2.26 0.563 -4.536 -0.763 -5.085 -2.963c-0.548 -2.2 0.839 -4.44 3.099 -5.004zm-21.982 1.413c2.26 0.563 3.647 2.803 3.099 5.003c-0.549 2.2 -2.825 3.527 -5.085 2.963c-2.26 -0.563 -3.647 -2.803 -3.099 -5.003c0.549 -2.2 2.825 -3.527 5.085 -2.963zm-20.143 -8.66c1.731 1.557 1.904 4.187 0.387 5.872c-1.517 1.684 -4.15 1.787 -5.88 0.229c-1.731 -1.559 -1.904 -4.188 -0.387 -5.873c1.517 -1.685 4.15 -1.787 5.88 -0.229zm-13.723 -16.822c0.835 2.174 -0.205 4.596 -2.321 5.408c-2.117 0.813 -4.51 -0.291 -5.344 -2.465c-0.835 -2.175 0.205 -4.596 2.321 -5.408c2.117 -0.813 4.51 0.291 5.344 2.465zm-4.087 -21.021c-0.284 2.312 -2.338 3.962 -4.589 3.685c-2.25 -0.276 -3.844 -2.374 -3.56 -4.686c0.284 -2.311 2.338 -3.961 4.588 -3.685c2.25 0.277 3.845 2.374 3.56 4.686zm6.43 -20.463c-1.335 1.908 -3.924 2.4 -5.78 1.1c-1.858 -1.301 -2.28 -3.902 -0.945 -5.81c1.336 -1.907 3.924 -2.4 5.782 -1.1c1.857 1.301 2.28 3.902 0.944 5.81zm15.543 -15.26c-2.056 1.093 -4.586 0.357 -5.65 -1.645c-1.065 -2.002 -0.26 -4.51 1.796 -5.604c2.056 -1.094 4.586 -0.357 5.65 1.645c1.065 2.002 0.26 4.51 -1.796 5.604z" id="shape.accent" fill="#166678"></path>
        <path d="M92.139 201.021c-1.687 0 -3.055 -1.348 -3.055 -3.01c0 -1.663 1.368 -3.011 3.055 -3.011c1.687 0 3.055 1.348 3.055 3.01c0 1.663 -1.368 3.011 -3.055 3.011zm16.754 3.819c-1.49 -0.792 -2.065 -2.625 -1.284 -4.093c0.78 -1.468 2.62 -2.016 4.11 -1.223c1.49 0.792 2.065 2.624 1.285 4.092c-0.781 1.468 -2.622 2.016 -4.111 1.224zm12.749 9.777c-0.968 -1.382 -0.648 -3.276 0.714 -4.23c1.362 -0.953 3.25 -0.606 4.218 0.776c0.968 1.382 0.648 3.276 -0.714 4.23c-1.362 0.953 -3.25 0.606 -4.218 -0.776zm-2.39 43.501c1.253 -1.129 3.172 -1.043 4.284 0.193c1.113 1.236 0.998 3.152 -0.256 4.281c-1.254 1.13 -3.172 1.043 -4.285 -0.192c-1.112 -1.236 -0.998 -3.153 0.256 -4.282zm-14.194 7.564c1.637 -0.408 3.29 0.568 3.693 2.182c0.402 1.613 -0.599 3.252 -2.236 3.66c-1.637 0.408 -3.29 -0.569 -3.693 -2.182c-0.402 -1.613 0.6 -3.252 2.236 -3.66zm-15.907 1.035c1.637 0.409 2.638 2.047 2.236 3.66c-0.403 1.614 -2.056 2.59 -3.693 2.183c-1.637 -0.409 -2.638 -2.047 -2.236 -3.66c0.402 -1.614 2.055 -2.59 3.693 -2.183zm-13.986 -5.73c1.254 1.13 1.368 3.047 0.256 4.282c-1.113 1.236 -3.031 1.322 -4.285 0.193c-1.254 -1.129 -1.368 -3.046 -0.256 -4.281c1.113 -1.236 3.031 -1.322 4.285 -0.193zm-10.312 -12.685c0.604 1.575 -0.164 3.335 -1.716 3.931c-1.552 0.596 -3.3 -0.198 -3.905 -1.773c-0.605 -1.575 0.163 -3.335 1.715 -3.931c1.552 -0.596 3.3 0.198 3.906 1.773zm-3.504 -15.947c-0.206 1.674 -1.71 2.868 -3.36 2.665c-1.65 -0.203 -2.822 -1.724 -2.616 -3.4c0.205 -1.674 1.71 -2.867 3.36 -2.665c1.65 0.203 2.821 1.725 2.616 3.4zm5.51 -14.177c-0.967 1.383 -2.856 1.73 -4.218 0.776c-1.362 -0.953 -1.681 -2.847 -0.714 -4.23c0.968 -1.381 2.857 -1.729 4.219 -0.775c1.362 0.954 1.681 2.847 0.714 4.23zm11.14 -11.327c-1.489 0.792 -3.33 0.244 -4.11 -1.224c-0.78 -1.468 -0.206 -3.3 1.284 -4.092c1.49 -0.792 3.33 -0.244 4.11 1.224c0.781 1.468 0.207 3.3 -1.283 4.092z" id="shape.secondary" fill-opacity=".8" fill="#7db9b3"></path>
        <g id="Group" transform="translate(140.000000, 206.000000)">
            <rect id="Rectangle-71" x="0" y="0" width="320" height="70"></rect><text id="headerText.primary" font-family="Asap Condensed" font-size="70" font-weight="500" line-spacing="70" letter-spacing="6.098" fill="#e1f6f4" data-text-alignment="L" font-style="normal">
                <tspan x="0" y="56.5">)</tspan>
            </text>
        </g>
    </g>
</svg>
