<svg xmlns="http://www.w3.org/2000/svg" width="19.288" height="28.932" viewBox="0 0 19.288 28.932">
  <path id="Path_750" data-name="Path 750" d="M94.977,0a9.645,9.645,0,0,0-8.486,14.227L94.45,28.621a.6.6,0,0,0,1.055,0l7.962-14.4A9.646,9.646,0,0,0,94.977,0Zm0,14.466A4.822,4.822,0,1,1,99.8,9.644,4.828,4.828,0,0,1,94.977,14.466Z" transform="translate(-85.333)" fill="#c1b17e"/>
</svg>
