<?xml version="1.0" encoding="utf-8"?>
<!-- Generator: Adobe Illustrator 23.0.6, SVG Export Plug-In . SVG Version: 6.00 Build 0)  -->
<svg version="1.1" id="Layer_1" xmlns="http://www.w3.org/2000/svg" xmlns:xlink="http://www.w3.org/1999/xlink" x="0px" y="0px"
	 viewBox="0 0 24 24" style="enable-background:new 0 0 24 24;" xml:space="preserve">
<style type="text/css">
	.st0{clip-path:url(#SVGID_2_);}
	.st1{fill:#0043BA;}
</style>
<g>
	<g>
		<defs>
			<rect id="SVGID_1_" width="24" height="24"/>
		</defs>
		<clipPath id="SVGID_2_">
			<use xlink:href="#SVGID_1_"  style="overflow:visible;"/>
		</clipPath>
		<g id="En_camino" class="st0">
			<path id="Path_8212" class="st1" d="M20.9,7.5L20.9,7.5c0-0.1,0-0.1,0-0.2l0,0l0,0l-0.1-0.1l0,0c0,0,0,0-0.1,0L12.6,3
				c-0.1,0-0.3,0-0.4,0l-9,4.7c0,0,0,0-0.1,0l0,0L3,7.8l0,0l0,0C3,8,3,8,3,8.1l0,0l0,0v8.6c0,0.2,0.1,0.3,0.2,0.4l8.3,4.7l0,0l0,0
				l0,0c0.1,0,0.1,0,0.2,0c0.2,0,0.3-0.1,0.4-0.2c0.2-0.2,0.4-0.3,0.7-0.4c0.6-0.2,1.3-0.4,2-0.4c0.7,0.1,1.4,0,2-0.3l0,0l0,0
				c0.6-0.4,1-0.9,1.3-1.6c0.2-0.4,0.4-0.8,0.8-1.2c0.4-0.2,0.8-0.4,1.3-0.6l0,0c0.2-0.1,0.4-0.3,0.4-0.5v-0.1L20.9,7.5
				C21,7.5,21,7.5,20.9,7.5z M12.4,3.9l7.2,3.6l-2.1,1.2l-7-3.8L12.4,3.9z M17.2,12.3L15.8,13l-0.2-2.3L17,9.9L17.2,12.3z
				 M11.8,11.8L4.4,8.1l3-1.6c0,0.1,0.1,0.2,0.2,0.2l6.9,3.6L11.8,11.8z M15.3,9.8L8.2,6.1l1.4-0.7l0.1,0.1l6.9,3.7L15.3,9.8
				C15.4,9.8,15.3,9.8,15.3,9.8L15.3,9.8z M3.9,8.8l7.5,3.7v8.1l-7.5-4.2C3.9,16.4,3.9,8.8,3.9,8.8z M18.5,17.1
				c-0.4,0.4-0.8,0.9-1,1.5c-0.2,0.5-0.5,0.9-0.9,1.2l0,0l0,0c-0.5,0.2-1,0.3-1.5,0.2c-0.8,0-1.6,0.2-2.3,0.5
				c-0.2,0.1-0.3,0.2-0.5,0.2v-8.2l2.6-1.4l0.2,2c0,0.5,0.5,0.8,1,0.8c0.1,0,0.3-0.1,0.4-0.1l1.3-0.8c0.3-0.2,0.5-0.5,0.4-0.8
				L18,9.5l2.2-1.2l-0.2,8C19.5,16.5,19,16.8,18.5,17.1L18.5,17.1z"/>
		</g>
	</g>
</g>
</svg>
