<?xml version="1.0" encoding="utf-8"?>
<!-- Generator: Adobe Illustrator 23.0.6, SVG Export Plug-In . SVG Version: 6.00 Build 0)  -->
<svg version="1.1" id="Layer_1" xmlns="http://www.w3.org/2000/svg" xmlns:xlink="http://www.w3.org/1999/xlink" x="0px" y="0px"
	 viewBox="0 0 24 24" style="enable-background:new 0 0 24 24;" xml:space="preserve">
<style type="text/css">
	.st0{clip-path:url(#SVGID_2_);}
	.st1{fill:#0043BA;}
</style>
<g>
	<g>
		<defs>
			<rect id="SVGID_1_" width="24" height="24"/>
		</defs>
		<clipPath id="SVGID_2_">
			<use xlink:href="#SVGID_1_"  style="overflow:visible;"/>
		</clipPath>
		<g id="Entregado" class="st0">
			<g id="Group_3957" transform="translate(2.999 0.852)">
				<g id="Group_60" transform="translate(1.185)">
					<g id="Group_51">
						<g id="Group_50">
							<path id="Path_66" class="st1" d="M7.6,22.3c-0.1,0-0.1,0-0.2,0H7.3l-7.1-4.1C0.1,18.1,0,17.9,0,17.8l0.1-7.4
								c0-0.2,0.2-0.4,0.4-0.4l0,0c0.2,0,0.4,0.2,0.4,0.4l0,0l-0.1,7.2l6.8,3.9c0.2-0.2,0.5-0.3,0.7-0.4c0.7-0.2,1.3-0.3,2-0.4
								c0.4,0.1,0.9,0,1.3-0.2l0,0l0,0c0.4-0.3,0.6-0.6,0.8-1c0.2-0.5,0.5-0.9,0.9-1.3c0.4-0.3,0.8-0.5,1.3-0.6l0.1-7.3L8.3,6.8
								L2.7,9.7c-0.2,0.1-0.5,0-0.6-0.2C2,9.3,2.1,9,2.3,8.9L8.1,6c0.1-0.1,0.3-0.1,0.4,0l7,3.6c0.1,0.1,0.2,0.2,0.2,0.4l-0.1,7.7
								v0.1c0,0.2-0.2,0.4-0.4,0.5l0,0c-0.4,0.1-0.8,0.3-1.1,0.5c-0.3,0.3-0.5,0.6-0.7,1c-0.2,0.6-0.6,1.1-1.1,1.4l0,0l0,0l0,0l0,0
								c-0.5,0.3-1.2,0.4-1.8,0.3c-0.6,0-1.1,0.1-1.7,0.3c-0.2,0.1-0.4,0.2-0.6,0.3C7.9,22.2,7.8,22.3,7.6,22.3z M7.5,21.5L7.5,21.5
								z M14.8,17.5L14.8,17.5z"/>
							<g id="Group_3669" transform="translate(7.267 9.144)">
								<g id="Group_67" transform="translate(0.778)">
									<g id="Group_66">
										<g id="Group_65">
											<path id="Path_72" class="st1" d="M0.2,1.9C0.1,1.9,0,1.8,0,1.7l0,0V0.2C0,0.1,0.1,0,0.1,0c0.1,0,0.2,0,0.2,0.1l0,0v1.6
												C0.3,1.8,0.2,1.9,0.2,1.9z"/>
										</g>
									</g>
								</g>
								<g id="Group_72" transform="translate(0 0.778)">
									<g id="Group_71">
										<g id="Group_70">
											<path id="Path_73" class="st1" d="M1.7,0.3H0.2C0.1,0.3,0,0.2,0,0.1C0,0.1,0.1,0,0.2,0h1.6C1.9,0,2,0.1,1.9,0.2
												C1.9,0.2,1.8,0.3,1.7,0.3z"/>
										</g>
									</g>
								</g>
							</g>
							<g id="Group_3670" transform="translate(6.082)">
								<g id="Group_89" transform="translate(0.778)">
									<g id="Group_88">
										<g id="Group_87">
											<path id="Path_76" class="st1" d="M0.2,1.9C0.1,1.9,0,1.8,0,1.7l0,0V0.2C0,0.1,0.1,0,0.1,0c0.1,0,0.2,0,0.2,0.1l0,0v1.6
												C0.3,1.8,0.2,1.9,0.2,1.9z"/>
										</g>
									</g>
								</g>
								<g id="Group_94" transform="translate(0 0.778)">
									<g id="Group_93">
										<g id="Group_92">
											<path id="Path_77" class="st1" d="M1.7,0.3H0.2C0.1,0.3,0,0.3,0,0.2S0,0,0.1,0l0,0h1.6c0.1,0,0.2,0.1,0.2,0.1
												S1.8,0.3,1.7,0.3L1.7,0.3z"/>
										</g>
									</g>
								</g>
							</g>
							<g id="Group_3671" transform="translate(0.063 1.275)">
								<g id="Group_97">
									<g id="Group_96">
										<path id="Path_78" class="st1" d="M0.7,1.5C0.3,1.5,0,1.1,0,0.7S0.3,0,0.7,0s0.7,0.3,0.7,0.7l0,0C1.5,1.1,1.1,1.5,0.7,1.5
											z M0.7,0.3c-0.2,0-0.4,0.2-0.4,0.4s0.2,0.4,0.4,0.4C1,1.1,1.1,1,1.1,0.7C1.1,0.5,1,0.3,0.7,0.3L0.7,0.3L0.7,0.3z"/>
									</g>
								</g>
							</g>
							<g id="Group_3672" transform="translate(9.623 4.183)">
								<g id="Group_100">
									<g id="Group_99">
										<path id="Path_79" class="st1" d="M0.7,1.5C0.3,1.5,0,1.1,0,0.7S0.3,0,0.7,0s0.7,0.3,0.7,0.7l0,0C1.5,1.1,1.1,1.5,0.7,1.5
											z M0.7,0.3c-0.2,0-0.4,0.2-0.4,0.4s0.2,0.4,0.4,0.4C1,1.1,1.1,1,1.1,0.7C1.1,0.5,1,0.3,0.7,0.3z"/>
									</g>
								</g>
							</g>
							<g id="Group_3673" transform="translate(4.76 5.194)">
								<g id="Group_102">
									<circle id="Ellipse_14" class="st1" cx="0.4" cy="0.4" r="0.4"/>
								</g>
							</g>
						</g>
					</g>
					<g id="Group_53" transform="translate(0.058 9.932)">
						<g id="Group_52">
							<path id="Path_67" class="st1" d="M7.5,12.4L7.5,12.4c-0.2,0-0.4-0.2-0.4-0.4l0.1-7.6l-7-3.6C0,0.7-0.1,0.4,0,0.2
								C0.2,0,0.4-0.1,0.6,0l7.2,3.7C7.9,3.8,8,3.9,8,4.1L7.9,12C7.9,12.2,7.7,12.4,7.5,12.4z"/>
						</g>
					</g>
					<g id="Group_55" transform="translate(7.209 9.52)">
						<g id="Group_54">
							<path id="Path_68" class="st1" d="M0.4,4.9C0.2,4.9,0,4.7,0,4.5s0.1-0.3,0.2-0.4L7.8,0C8-0.1,8.3,0,8.4,0.2
								c0.1,0.2,0,0.5-0.2,0.6L0.6,4.9C0.6,4.9,0.5,4.9,0.4,4.9z"/>
						</g>
					</g>
					<g id="Group_59" transform="translate(7.832 2.786)">
						<g id="Group_58">
							<path id="Path_70" class="st1" d="M7.3,7.4C7.1,7.4,6.9,7.3,6.9,7c0-0.1,0-0.1,0-0.2L8.4,4L2.3,1L0.8,3.8
								C0.7,4,0.4,4.1,0.2,4C0,3.8-0.1,3.6,0,3.4l0,0l1.7-3.2C1.8,0,2.1-0.1,2.3,0l6.9,3.4C9.4,3.5,9.5,3.8,9.4,4l0,0L7.7,7.2
								C7.6,7.4,7.5,7.4,7.3,7.4z"/>
						</g>
					</g>
				</g>
				<g id="Group_62" transform="translate(0 7.304)">
					<g id="Group_61">
						<path id="Path_71" class="st1" d="M8.8,7.1C8.6,7.1,8.4,7,8.4,6.8L7.2,4.3l-5.9-3L2,2.9c0.1,0.2,0,0.5-0.2,0.6s-0.5,0-0.6-0.2
							l0,0L0,0.6C-0.1,0.4,0,0.1,0.2,0c0.2,0,0.3,0,0.4,0l7.1,3.6c0.1,0,0.2,0.1,0.2,0.2l1.2,2.6c0.1,0.2,0,0.5-0.2,0.6
							C8.9,7,8.8,7.1,8.8,7.1L8.8,7.1z"/>
					</g>
				</g>
			</g>
		</g>
	</g>
</g>
</svg>
