{
    "default" : "default",
    "merchandizeTotalPrice" : "merchandizeTotalPrice",
    "shippingAddress" : "shippingAddress",
    "shippingMethod" : "shippingMethod",
    "shippingStatus" : "shippingStatus",
    "shippingTotalPrice" : "shippingTotalPrice"
}
