<?xml version="1.0" encoding="utf-8"?>
<!-- Generator: Adobe Illustrator 25.2.3, SVG Export Plug-In . SVG Version: 6.00 Build 0)  -->
<svg version="1.1" id="Layer_1" xmlns="http://www.w3.org/2000/svg" xmlns:xlink="http://www.w3.org/1999/xlink" x="0px" y="0px"
	 viewBox="0 0 56 56" style="enable-background:new 0 0 56 56;" xml:space="preserve">
<style type="text/css">
	.st0{clip-path:url(#SVGID_2_);}
	.st1{fill:#FFFFFF;}
</style>
<g>
	<defs>
		<rect id="SVGID_1_" width="56" height="56"/>
	</defs>
	<clipPath id="SVGID_2_">
		<use xlink:href="#SVGID_1_"  style="overflow:visible;"/>
	</clipPath>
	<g id="_01_CENTRO_DE_AYUDA_-_BUSCAR_8" class="st0">
		<rect class="st1" width="56" height="56"/>
		<g id="Group_10" transform="translate(-397.807 -171.841)">
			<path id="Path_14" d="M448.5,216.5l-7.1-7.1c3.5-6.9,0.8-15.4-6.1-19c-0.4-0.2-0.8-0.4-1.2-0.5v-6.1c0-2.1-1.7-3.8-3.8-3.8h-4.4
				v-0.8c0-1.8-1.5-3.3-3.3-3.3h-8.2c-1.8,0-3.3,1.5-3.3,3.3v0.8h-4.4c-2.1,0-3.8,1.7-3.8,3.8V218c-0.1,1.4,0.4,2.9,1.4,4
				c0.7,0.7,1.8,1.1,2.8,1.1c0.6,0,1.1-0.1,1.7-0.2c0.3-0.1,0.7-0.2,1-0.2c0.4,0.1,0.8,0.2,1.1,0.4c1,0.5,2.2,0.8,3.3,0.7
				c1.1,0,2.2-0.3,3.1-0.8c0.3-0.2,0.7-0.3,1.2-0.3c0.4,0,0.8,0.1,1.2,0.4c1,0.5,2.1,0.8,3.2,0.8c1.1,0,2.3-0.2,3.3-0.8
				c0.3-0.2,0.7-0.3,1-0.4c0.4,0,0.8,0,1.1,0.1c0.6,0.1,1.1,0.2,1.7,0.2c1,0,2-0.5,2.7-1.2c1-1,1.5-2.4,1.4-3.8v-1.8
				c0.4-0.1,0.7-0.3,1.1-0.5l7.1,7.1c0,0,0,0,0.1,0.1c1.5,1.4,3.8,1.4,5.2-0.1l0.9-0.9l0,0c0.7-0.7,1.1-1.7,1.1-2.6
				C449.6,218.2,449.2,217.2,448.5,216.5z M440.7,203c0,6.6-5.4,12-12,12s-12-5.4-12-12c0-6.6,5.4-12,12-12
				C435.4,191,440.7,196.4,440.7,203L440.7,203z M413.2,179.1c0-0.6,0.5-1.1,1.1-1.1h8.2c0.6,0,1.1,0.5,1.1,1.1v3.2
				c0,0.6-0.5,1.1-1.1,1.1h-8.2c-0.6,0-1.1-0.5-1.1-1.1L413.2,179.1z M431.8,218c0.1,0.8-0.2,1.7-0.7,2.3c-0.3,0.3-0.7,0.5-1.2,0.5
				c-0.4,0-0.8-0.1-1.2-0.2c-0.7-0.2-1.3-0.2-2-0.2c-0.5,0.1-1.1,0.3-1.6,0.6c-0.7,0.4-1.5,0.6-2.3,0.5c-0.8,0-1.6-0.2-2.3-0.6
				c-0.7-0.4-1.4-0.5-2.1-0.6c-0.8,0-1.5,0.2-2.1,0.6c-0.7,0.4-1.4,0.6-2.2,0.6c-0.8,0-1.6-0.1-2.4-0.5c-0.5-0.3-1.1-0.5-1.7-0.6
				c-0.6-0.1-1.3,0-1.9,0.2c-0.4,0.1-0.8,0.2-1.2,0.2c-0.4,0-0.9-0.1-1.2-0.4c-0.5-0.7-0.8-1.5-0.7-2.4v-34.2c0-0.9,0.7-1.6,1.6-1.6
				h4.4v0.3c0,1.8,1.5,3.3,3.3,3.3h8.2c1.8,0,3.3-1.5,3.3-3.3v-0.3h4.4c0.9,0,1.6,0.7,1.6,1.6v5.4c-7.6-1.7-15.2,3.1-16.9,10.7
				c-1.7,7.6,3.1,15.2,10.7,16.9c2.1,0.5,4.2,0.5,6.3,0L431.8,218z M446.9,220.3l-0.9,0.9c-0.6,0.6-1.6,0.6-2.2,0l0,0l-6.7-6.7
				c1.2-0.9,2.3-1.9,3.1-3.1l6.8,6.8C447.5,218.7,447.5,219.7,446.9,220.3L446.9,220.3z"/>
			<path id="Path_15" d="M425.9,194.3c-0.2,0.1-0.4,0.3-0.6,0.4c-0.3,0.1-0.5,0.2-0.8,0.2c-2.1,0.1-3.8,1.8-3.9,3.9
				c0,0.3-0.1,0.5-0.2,0.8c-0.1,0.2-0.2,0.4-0.4,0.6c-1.4,1.6-1.4,4,0,5.6c0.1,0.2,0.3,0.4,0.4,0.6c0.1,0.2,0.2,0.5,0.2,0.8v0v0
				c0.1,2.1,1.8,3.8,3.9,3.9c0.3,0,0.5,0.1,0.8,0.2c0.2,0.1,0.4,0.2,0.6,0.4c1.6,1.4,4,1.4,5.6,0c0.2-0.1,0.4-0.3,0.6-0.4
				c0.3-0.1,0.5-0.2,0.8-0.2c2.1-0.1,3.8-1.8,3.9-3.9c0-0.3,0.1-0.5,0.2-0.8c0.1-0.2,0.2-0.4,0.4-0.6c1.4-1.6,1.4-4,0-5.6
				c-0.1-0.2-0.3-0.4-0.4-0.6c-0.1-0.3-0.2-0.5-0.2-0.8c-0.1-2.1-1.8-3.8-3.9-3.9c-0.5-0.1-1-0.3-1.4-0.6
				C430,192.9,427.6,192.9,425.9,194.3L425.9,194.3z M431.4,196.7c0.4,0.1,0.8,0.3,1.2,0.3c1.2,0,2.2,0.9,2.2,2.1c0,0,0,0.1,0,0.1
				c0.1,0.4,0.2,0.8,0.3,1.2c0.2,0.4,0.4,0.7,0.6,1c0.9,0.8,0.9,2.2,0.1,3.1c0,0-0.1,0.1-0.1,0.1c-0.2,0.3-0.4,0.7-0.6,1
				c-0.1,0.4-0.2,0.8-0.3,1.2c0,1.2-0.9,2.2-2.1,2.2c0,0-0.1,0-0.1,0c-0.4,0.1-0.8,0.2-1.2,0.3c-0.4,0.2-0.7,0.4-1,0.6
				c-0.8,0.9-2.2,0.9-3.1,0.1c0,0-0.1-0.1-0.1-0.1c-0.3-0.2-0.7-0.4-1-0.6c-0.4-0.1-0.8-0.2-1.2-0.3c-1.2,0-2.2-0.9-2.2-2.1
				c0,0,0-0.1,0-0.1v0l-1.1,0.2l1.1-0.2c-0.1-0.4-0.2-0.8-0.3-1.1c-0.2-0.4-0.4-0.7-0.6-1c-0.9-0.8-0.9-2.2-0.1-3.1
				c0,0,0.1-0.1,0.1-0.1c0.2-0.3,0.4-0.6,0.6-1c0.1-0.4,0.2-0.8,0.3-1.2c0-1.2,0.9-2.2,2.1-2.2c0,0,0.1,0,0.1,0
				c0.4-0.1,0.8-0.2,1.1-0.3c0.4-0.2,0.7-0.4,1-0.6c0.8-0.9,2.2-0.9,3.1-0.1c0,0,0.1,0.1,0.1,0.1C430.7,196.3,431,196.5,431.4,196.7
				L431.4,196.7z"/>
			<path id="Path_16" d="M409.2,191h5.2c0.6,0,1.1-0.5,1.1-1.1c0-0.6-0.5-1.1-1.1-1.1h-5.2c-0.6,0-1.1,0.5-1.1,1.1
				C408.1,190.5,408.6,191,409.2,191L409.2,191z"/>
			<path id="Path_17" d="M409.2,195.8h5.2c0.6,0,1.1-0.5,1.1-1.1c0-0.6-0.5-1.1-1.1-1.1h-5.2c-0.6,0-1.1,0.5-1.1,1.1
				C408.1,195.3,408.6,195.8,409.2,195.8z"/>
			<path id="Path_18" d="M409.2,200.6h2.9c0.6,0,1.1-0.5,1.1-1.1c0-0.6-0.5-1.1-1.1-1.1h-2.9c-0.6,0-1.1,0.5-1.1,1.1
				C408.1,200.1,408.6,200.6,409.2,200.6L409.2,200.6z"/>
			<path id="Path_19" d="M409.2,205.4h2.9c0.6,0,1.1-0.5,1.1-1.1c0-0.6-0.5-1.1-1.1-1.1h-2.9c-0.6,0-1.1,0.5-1.1,1.1
				C408.1,204.9,408.6,205.4,409.2,205.4z"/>
			<path id="Path_20" d="M409.2,210.1h4.2c0.6,0,1.1-0.5,1.1-1.1c0-0.6-0.5-1.1-1.1-1.1l0,0h-4.2c-0.6,0-1.1,0.5-1.1,1.1
				C408.1,209.7,408.6,210.1,409.2,210.1z"/>
			<path id="Path_21" d="M414.4,212.7h-5.2c-0.6,0-1.1,0.5-1.1,1.1c0,0.6,0.5,1.1,1.1,1.1l0,0h5.2c0.6,0,1.1-0.5,1.1-1.1
				C415.5,213.2,415,212.7,414.4,212.7z"/>
		</g>
	</g>
</g>
</svg>
