<?xml version="1.0" encoding="utf-8"?>
<!-- Generator: Adobe Illustrator 25.2.3, SVG Export Plug-In . SVG Version: 6.00 Build 0)  -->
<svg version="1.1" id="Layer_1" xmlns="http://www.w3.org/2000/svg" xmlns:xlink="http://www.w3.org/1999/xlink" x="0px" y="0px"
	 viewBox="0 0 56 56" style="enable-background:new 0 0 56 56;" xml:space="preserve">
<style type="text/css">
	.st0{clip-path:url(#SVGID_2_);}
	.st1{fill:#FFFFFF;}
</style>
<g>
	<defs>
		<rect id="SVGID_1_" width="56" height="56"/>
	</defs>
	<clipPath id="SVGID_2_">
		<use xlink:href="#SVGID_1_"  style="overflow:visible;"/>
	</clipPath>
	<g id="_01_CENTRO_DE_AYUDA_-_BUSCAR_12" class="st0">
		<rect class="st1" width="56" height="56"/>
		<g id="Component_163_1" transform="translate(4 4)">
			<path id="whatsapp-brands" d="M40.8,7C31.5-2.3,16.4-2.3,7.2,7C-0.4,14.6-2,26.4,3.4,35.7L0,48l12.6-3.3
				c3.5,1.9,7.4,2.9,11.4,2.9h0C37,47.8,47.8,37.4,48,24.3C48.1,17.8,45.5,11.5,40.8,7z M24,43.6c-3.5,0-7-0.9-10.1-2.8l-0.7-0.4
				l-7.5,2l2-7.3l-0.5-0.8C1.6,25,4.5,12.8,13.9,7.1s21.5-2.7,27.2,6.7c1.8,3,2.8,6.5,2.9,10.1C43.9,34.8,34.9,43.6,24,43.6L24,43.6
				z M34.8,28.8c-0.6-0.3-3.5-1.7-4.1-1.9s-0.9-0.3-1.3,0.3s-1.5,1.9-1.9,2.3s-0.7,0.5-1.3,0.2c-3.5-1.7-5.8-3.1-8.1-7.1
				c-0.6-1,0.6-1,1.7-3.2c0.2-0.3,0.1-0.7-0.1-1C19.7,18,18.5,15,18,13.9c-0.5-1.2-1-1-1.3-1c-0.3,0-0.7,0-1.1,0
				c-0.6,0-1.2,0.3-1.6,0.7c-1.4,1.3-2.1,3.1-2.1,5c0,2.9,2.1,5.8,2.4,6.2s4.2,6.4,10.2,9c3.8,1.6,5.2,1.8,7.1,1.5
				c1.1-0.2,3.5-1.4,4-2.8c0.4-0.9,0.5-1.9,0.3-2.8C35.8,29.2,35.4,29.1,34.8,28.8z"/>
		</g>
	</g>
</g>
</svg>
