{
    "name": "Up 4 Img Vertical",
    "description": "Up 4 Img Vertical",
    "group": "layouts",
    "attribute_definition_groups": [
        {
            "id": "up4ImgVertical",
            "name": "Up 4 Img Vertical",
            "description": "Up 4 Img Vertical",
            "attribute_definitions": [
                {
                    "id": "layoutSize",
                    "name": "Layout Size",
                    "description": "Choose Layout Size",
                    "type": "enum",
                    "values": ["Full Width", "Middle Aligned", "Minor Margins"],
                    "required": false
                },
                {
                    "id": "enableTopMargin",
                    "name": "Enable Top Margin",
                    "description": "Enable Top Margin",
                    "type": "boolean",
                    "required": false
                }
            ]
        }
    ],
    "region_definitions": [
        {
            "id":"Up4ImgVerticalTiles",
            "max_components": 4,
            "name":"Up 4 Img Vertical Tiles",
            "component_type_exclusions": [
                { "type_id": "assets.banner" },
                { "type_id": "assets.brandFeature" },
                { "type_id": "assets.productTile" },
                { "type_id": "assets.testimonialsBanner" },
                { "type_id": "assets.up3ProductsItem" },
                { "type_id": "assets.up5ItemsCarouselItem" },
                { "type_id": "assets.breadcrumb" },
                { "type_id": "assets.content404" },
                { "type_id": "assets.up2CtaTile" },
                { "type_id": "assets.article" },
                { "type_id": "assets.socialTile" },
                { "type_id": "assets.accordionContentTab" },
                { "type_id": "assets.termsConditions" },
                { "type_id": "assets.contactUsForm" },
                { "type_id": "assets.googleMapMarker" },

                { "type_id": "layouts.up1ItemCarousel" },
                { "type_id": "layouts.bannerProductsCarousel" },
                { "type_id": "layouts.newArrivalsProducts" },
                { "type_id": "layouts.up2Cta" },
                { "type_id": "layouts.up3Products" },
                { "type_id": "layouts.up4ItemsCarousel" },
                { "type_id": "layouts.up5ItemsCarousel" },
                { "type_id": "layouts.brandFeatures" },
                { "type_id": "layouts.up4ProductsCarousel" },
                { "type_id": "layouts.breadcrumbs" },
                { "type_id": "layouts.up4ImgVertical" },
                { "type_id": "layouts.socialTiles" },
                { "type_id": "layouts.accordionContent" },
                { "type_id": "layouts.googleMap" }
            ]
        }
    ]
}
