{
    "name": "Image Button",
    "group": "assets",
    "attribute_definition_groups": [
        {
            "id": "imageButton",
            "name": "Image Button",
            "description": "Configuration for how the Banner will display",
            "attribute_definitions": [
               
                {
                    "id": "imageMobile",
                    "name": "Image Mobile",
                    "type": "image",
                    "required": false
                },
                {
                    "id": "imageTablet",
                    "name": "Image Tablet",
                    "type": "image",
                    "required": false
                },
                {
                    "id": "imageDesktop",
                    "name": "Image Desktop",
                    "type": "image",
                    "required": false
                },
                {
                    "id": "alt",
                    "name": "Alt Text",
                    "description": "The image alt text shown by the component.",
                    "type": "string",
                    "required": false
                },
                {
                    "id": "link",
                    "name": "link",
                    "description": "Link",
                    "type": "url",
                    "required": false
                },
                {
                    "id": "buttonText",
                    "name": "Button Text",
                    "type": "string",
                    "required": false
                }
            ]
        }
    ],
    "region_definitions": [
    ]
}
